Análisis estadístico de la base de datos de World Ranking Universities 2025
…
Variables numericas

# A tibble: 2,010 × 7
    Rank Overall Teaching Research_Environment Research_Quality Industry
   <dbl>   <dbl>    <dbl>                <dbl>            <dbl>    <dbl>
 1     1    98.5     96.8                100               98.8     99.6
 2     2    98.1     99.2                 96               99.7    100  
 3     3    97.7     97.3                 99.9             99.3     85.7
 4     4    97.5     98.3                 98               98.9     96.9
 5     5    97.4     95.9                 99.9             97.6     88.4
 6     6    97.2     97.5                 97.3             99.6    100  
 7     7    96.3     95.2                 97.5             97.3    100  
 8     8    94.5     87.2                 98.9             99       99.5
 9     9    94.4     89.3                 94.9             98.5     90.8
10    10    94.1     93.7                 95               97.8     86.5
# ℹ 2,000 more rows
# ℹ 1 more variable: International_Outlook <dbl>
…
